C:\Users\brule\Desktop\openclassroom\projet\p9\projet9Comptabilite\myerp-technical\src\main\java\com\dummy\myerp\technical\exception\FunctionalException.java
C:\Users\brule\Desktop\openclassroom\projet\p9\projet9Comptabilite\myerp-technical\src\main\java\com\dummy\myerp\technical\exception\NotFoundException.java
C:\Users\brule\Desktop\openclassroom\projet\p9\projet9Comptabilite\myerp-technical\src\main\java\com\dummy\myerp\technical\exception\TechnicalException.java
C:\Users\brule\Desktop\openclassroom\projet\p9\projet9Comptabilite\myerp-technical\src\main\java\com\dummy\myerp\technical\util\spring\NullFactoryBean.java
