C:\Users\brule\Desktop\openclassroom\projet\p9\projet9Comptabilite\myerp-model\src\test\java\com\dummy\myerp\model\bean\comptabilite\SequenceEcritureComptableTest.java
C:\Users\brule\Desktop\openclassroom\projet\p9\projet9Comptabilite\myerp-model\src\test\java\com\dummy\myerp\model\bean\comptabilite\LigneEcritureComptableTest.java
C:\Users\brule\Desktop\openclassroom\projet\p9\projet9Comptabilite\myerp-model\src\test\java\com\dummy\myerp\model\bean\comptabilite\LoggingExtension.java
C:\Users\brule\Desktop\openclassroom\projet\p9\projet9Comptabilite\myerp-model\src\test\java\com\dummy\myerp\model\bean\comptabilite\CompteComptableTest.java
C:\Users\brule\Desktop\openclassroom\projet\p9\projet9Comptabilite\myerp-model\src\test\java\com\dummy\myerp\model\bean\comptabilite\EcritureComptableTest.java
C:\Users\brule\Desktop\openclassroom\projet\p9\projet9Comptabilite\myerp-model\src\test\java\com\dummy\myerp\model\bean\comptabilite\JournalComptableTest.java
